<?xml version="1.0" encoding="iso-8859-1"?>
<!-- Generator: Adobe Illustrator 19.0.0, SVG Export Plug-In . SVG Version: 6.00 Build 0)  -->
<svg version="1.1" id="Capa_1" xmlns="http://www.w3.org/2000/svg" xmlns:xlink="http://www.w3.org/1999/xlink" x="0px" y="0px"
	 viewBox="0 0 54 54" style="enable-background:new 0 0 54 54;" xml:space="preserve">
<g>
	<g>
		<path d="M53,3H1C0.447,3,0,3.448,0,4v18v28c0,0.553,0.447,1,1,1h7c0.553,0,1-0.447,1-1v-3h7v0.021h2V47h8v0.021h2V47h8v0.021h2V47
			h7v3c0,0.553,0.447,1,1,1h7c0.553,0,1-0.447,1-1V22V4C54,3.448,53.553,3,53,3z M2,5h50v16h-6h-8h-2h-8h-2h-8h-2H8H2V5z M45,33h-7
			V23h7V33z M9,23h7v10H9V23z M18,23h8v10h-8V23z M28,23h8v10h-8V23z M7,49H2V23h5v11v12V49z M9,45V35h7v10H9z M18,45V35h8v10H18z
			 M28,45V35h8v10H28z M38,45V35h7v10H38z M52,49h-5v-3V34V23h5V49z"/>
		<path d="M9,11.414l2.293,2.293C11.488,13.902,11.744,14,12,14s0.512-0.098,0.707-0.293L15,11.414V18h2V7h-2v1.586l-3,3l-3-3V7H7
			v11h2V11.414z"/>
		<path d="M21,14h5v4h2v-4v-2V8c0-0.552-0.447-1-1-1h-7c-0.553,0-1,0.448-1,1v4v2v4h2V14z M21,9h5v3h-5V9z"/>
		<polygon points="38,18 38,16 32,16 32,7 30,7 30,16 30,18 32,18 		"/>
		<polygon points="47,18 47,16 41,16 41,7 39,7 39,16 39,18 41,18 		"/>
	</g>
</g>
<g>
</g>
<g>
</g>
<g>
</g>
<g>
</g>
<g>
</g>
<g>
</g>
<g>
</g>
<g>
</g>
<g>
</g>
<g>
</g>
<g>
</g>
<g>
</g>
<g>
</g>
<g>
</g>
<g>
</g>
</svg>
