<?xml version="1.0" encoding="utf-8"?>
<!-- Generator: Adobe Illustrator 19.0.0, SVG Export Plug-In . SVG Version: 6.00 Build 0)  -->
<svg version="1.1" id="Capa_1" xmlns="http://www.w3.org/2000/svg" xmlns:xlink="http://www.w3.org/1999/xlink" x="0px" y="0px"
	 viewBox="0 0 742.6 265.9" style="enable-background:new 0 0 742.6 265.9;" xml:space="preserve">
<style type="text/css">
	.st0{fill:url(#SVGID_1_);}
	.st1{fill:#46611E;}
	.st2{fill:url(#SVGID_2_);}
	.st3{fill:url(#SVGID_3_);}
	.st4{fill:#FFFFFF;}
	.st5{fill:url(#SVGID_4_);}
	.st6{fill:#A8D9E7;}
	.st7{fill:url(#SVGID_5_);}
	.st8{fill:#8B569A;}
	.st9{fill:url(#SVGID_6_);}
	.st10{fill:#A4D4E2;}
	.st11{fill:url(#SVGID_7_);}
	.st12{fill:#9B2904;}
	.st13{fill:url(#SVGID_8_);}
	.st14{fill:url(#SVGID_9_);}
	.st15{fill:url(#SVGID_10_);}
	.st16{fill:#06547F;}
	.st17{fill:url(#SVGID_11_);}
	.st18{fill:#63A3EB;}
	.st19{fill:url(#SVGID_12_);}
	.st20{fill:url(#SVGID_13_);}
	.st21{fill:url(#SVGID_14_);}
	.st22{fill:url(#SVGID_15_);}
	.st23{fill:url(#SVGID_16_);}
	.st24{fill:url(#SVGID_17_);}
	.st25{fill:url(#SVGID_18_);}
	.st26{fill:url(#SVGID_19_);}
	.st27{fill:url(#SVGID_20_);}
	.st28{fill:url(#SVGID_21_);}
	.st29{fill:url(#SVGID_22_);}
	.st30{fill:url(#SVGID_23_);}
	.st31{fill:url(#SVGID_24_);}
	.st32{fill:url(#SVGID_25_);}
	.st33{fill:url(#SVGID_26_);}
	.st34{fill:url(#SVGID_27_);}
	.st35{fill:url(#SVGID_28_);}
	.st36{fill:url(#SVGID_29_);}
	.st37{fill:url(#SVGID_30_);}
	.st38{fill:url(#SVGID_31_);}
	.st39{fill:url(#SVGID_32_);}
	.st40{fill:url(#SVGID_33_);}
	.st41{fill:url(#SVGID_34_);}
	.st42{fill:url(#SVGID_35_);}
	.st43{fill:url(#SVGID_36_);}
	.st44{fill:url(#SVGID_37_);}
	.st45{fill:url(#SVGID_38_);}
	.st46{fill:url(#SVGID_39_);}
	.st47{fill:url(#SVGID_40_);}
	.st48{fill:url(#SVGID_41_);}
	.st49{fill:url(#SVGID_42_);}
	.st50{fill:url(#SVGID_43_);}
	.st51{fill:url(#SVGID_44_);}
	.st52{fill:url(#SVGID_45_);}
	.st53{fill:url(#SVGID_46_);}
	.st54{fill:url(#SVGID_47_);}
	.st55{fill:url(#SVGID_48_);}
	.st56{fill:url(#SVGID_49_);}
	.st57{fill:url(#SVGID_50_);}
	.st58{fill:url(#SVGID_51_);}
	.st59{fill:url(#SVGID_52_);}
	.st60{fill:url(#SVGID_53_);}
	.st61{fill:url(#SVGID_54_);}
	.st62{fill:url(#SVGID_55_);}
	.st63{fill:url(#SVGID_56_);}
	.st64{fill:url(#SVGID_57_);}
	.st65{fill:url(#SVGID_58_);}
	.st66{fill:url(#SVGID_59_);}
	.st67{fill:url(#SVGID_60_);}
	.st68{fill:url(#SVGID_61_);}
	.st69{fill:url(#SVGID_62_);}
	.st70{fill:url(#SVGID_63_);}
	.st71{fill:url(#SVGID_64_);}
	.st72{fill:url(#SVGID_65_);}
	.st73{fill:url(#SVGID_66_);}
	.st74{fill:url(#SVGID_67_);}
	.st75{fill:url(#SVGID_68_);}
	.st76{fill:url(#SVGID_69_);}
	.st77{fill:url(#SVGID_70_);}
	.st78{fill:url(#SVGID_71_);}
	.st79{fill:url(#SVGID_72_);}
	.st80{fill:url(#SVGID_73_);}
	.st81{fill:url(#SVGID_74_);}
	.st82{fill:url(#SVGID_75_);}
	.st83{fill:url(#SVGID_76_);}
	.st84{fill:url(#SVGID_77_);}
	.st85{fill:url(#SVGID_78_);}
	.st86{fill:url(#SVGID_79_);}
	.st87{fill:url(#SVGID_80_);}
	.st88{fill:url(#SVGID_81_);}
	.st89{fill:url(#SVGID_82_);}
	.st90{fill:url(#SVGID_83_);}
	.st91{fill:url(#SVGID_84_);}
	.st92{fill:url(#SVGID_85_);}
	.st93{fill:url(#SVGID_86_);}
	.st94{fill:url(#SVGID_87_);}
	.st95{fill:url(#SVGID_88_);}
	.st96{fill:url(#SVGID_89_);}
	.st97{fill:url(#SVGID_90_);}
	.st98{fill:url(#SVGID_91_);}
	.st99{fill:url(#SVGID_92_);}
	.st100{fill:url(#SVGID_93_);}
	.st101{fill:url(#SVGID_94_);}
	.st102{fill:url(#SVGID_95_);}
	.st103{fill:url(#SVGID_96_);}
	.st104{fill:url(#SVGID_97_);}
	.st105{fill:url(#SVGID_98_);}
	.st106{fill:url(#SVGID_99_);}
	.st107{fill:url(#SVGID_100_);}
	.st108{fill:url(#SVGID_101_);}
	.st109{fill:url(#SVGID_102_);}
	.st110{fill:url(#SVGID_103_);}
	.st111{fill:url(#SVGID_104_);}
	.st112{fill:url(#SVGID_105_);}
	.st113{fill:url(#SVGID_106_);}
	.st114{fill:url(#SVGID_107_);}
	.st115{fill:url(#SVGID_108_);}
	.st116{fill:url(#SVGID_109_);}
	.st117{fill:#FFB517;}
</style>
<g>
	<linearGradient id="SVGID_1_" gradientUnits="userSpaceOnUse" x1="439.4447" y1="123.6752" x2="716.4443" y2="123.6752">
		<stop  offset="0" style="stop-color:#48BF00"/>
		<stop  offset="1" style="stop-color:#B5AA00"/>
	</linearGradient>
	<path class="st0" d="M716.4,192.6L694.7,175l-26-26l-8.5-11.8l-8.5-3.8l-9.9-11.4l-8-8.5l-3.8-9.5l-7.6-6.2l-2.8-0.9l-1.4-2.8
		l-7.1-6.2l-8.5,0.5l-9.9-0.5l-9.9-3.3h-5.7l-6.6-6.6l-7.6,1.4l-5.2,4.7l-11.8-0.9l-13.3-0.5l-10.4-0.9l-9.5-6.6l-12.3-10.4
		l-6.6-2.8l-6.6,1.4l-3.8-7.1l-5.7,0.5l-11.8,0.9l-14.2-3.3h-11.8V193C439.4,193,717.2,193.3,716.4,192.6z"/>
	<polygon class="st1" points="37,190.2 45,184 61.6,169.3 97.6,140 123.1,115.4 128.4,111.6 139.2,103.5 154.9,96.9 172.4,89.3 
		186.6,77 198.9,70.4 217.4,62.8 226.8,60 237.7,56.2 248.6,54.8 258.6,52.4 269.5,46.7 280.3,42 296.4,43.4 301.2,47.2 301.2,193 
		36,193 	"/>
	<linearGradient id="SVGID_2_" gradientUnits="userSpaceOnUse" x1="324.3839" y1="17.3552" x2="324.3839" y2="192.5507">
		<stop  offset="0" style="stop-color:#48BF3C"/>
		<stop  offset="1" style="stop-color:#0A3200"/>
	</linearGradient>
	<path class="st2" d="M77.7,191.6l24.6-35.5l36.9-35l71.5-37.9l22.7-10.4L259,57.6l12.8-6.6l30.8-9l9.9-4.3l14.2-10.4h3.8l5.7-1.4
		l4.7-3.3l4.3,2.4l5.7-1.9l3.3,0.9l4.7,0.5l4.7-2.4l6.2-2.8h6.2l9-1.9l7.1,2.4l3.3,5.2l7.1,4.3l8,0.5l3.3,2.8l10.4,0.9l6.2,4.7
		l12.8,10.4l5.2,4.7l10.9,5.2l14.2,9.5l16.6,13.3l27.9,21.8c0,0,11.8,9.9,17,11.8c0,0,34.1,7.1,36,77.7L77.7,191.6z"/>
</g>
<g>
	<linearGradient id="SVGID_3_" gradientUnits="userSpaceOnUse" x1="136.2055" y1="119.7966" x2="225.8284" y2="119.7966">
		<stop  offset="0" style="stop-color:#FA9A0F"/>
		<stop  offset="1" style="stop-color:#FFEB06"/>
	</linearGradient>
	<rect x="136.2" y="47.2" class="st3" width="89.6" height="145.2"/>
	<g>
		<rect x="144.4" y="58.3" class="st4" width="72.8" height="7.4"/>
		<rect x="144.4" y="73.1" class="st4" width="72.8" height="7.4"/>
		<rect x="144.4" y="88.2" class="st4" width="72.8" height="7.4"/>
		<rect x="144.4" y="103" class="st4" width="72.8" height="7.4"/>
		<rect x="144.4" y="118.8" class="st4" width="72.8" height="7.4"/>
		<rect x="144.4" y="133.9" class="st4" width="72.8" height="7.4"/>
		<rect x="144.4" y="148.7" class="st4" width="72.8" height="7.4"/>
		<rect x="144.4" y="164.2" class="st4" width="72.8" height="7.4"/>
	</g>
</g>
<g>
	<linearGradient id="SVGID_4_" gradientUnits="userSpaceOnUse" x1="44.6075" y1="151.2757" x2="133.9835" y2="151.2757">
		<stop  offset="0" style="stop-color:#00729D"/>
		<stop  offset="1" style="stop-color:#0395AE"/>
	</linearGradient>
	<polygon class="st5" points="44.6,192.1 44.6,120 57.2,120 57.2,110.2 121.9,110.2 121.9,120 134,120 134,192.4 	"/>
	<g>
		<rect x="62.8" y="124.9" class="st6" width="10.7" height="5.7"/>
		<rect x="62.8" y="132.6" class="st6" width="10.7" height="5.7"/>
		<rect x="62.8" y="141.1" class="st6" width="10.7" height="5.7"/>
		<rect x="62.8" y="148.7" class="st6" width="10.7" height="5.7"/>
		<rect x="62.8" y="157" class="st6" width="10.7" height="5.7"/>
		<rect x="62.8" y="165.3" class="st6" width="10.7" height="5.7"/>
		<rect x="83.6" y="124.9" class="st6" width="10.7" height="5.7"/>
		<rect x="83.6" y="132.6" class="st6" width="10.7" height="5.7"/>
		<rect x="83.6" y="141.1" class="st6" width="10.7" height="5.7"/>
		<rect x="83.6" y="148.7" class="st6" width="10.7" height="5.7"/>
		<rect x="83.6" y="157" class="st6" width="10.7" height="5.7"/>
		<rect x="83.6" y="165.3" class="st6" width="10.7" height="5.7"/>
		<rect x="105.5" y="124.9" class="st6" width="10.7" height="5.7"/>
		<rect x="105.5" y="132.6" class="st6" width="10.7" height="5.7"/>
		<rect x="105.5" y="141.1" class="st6" width="10.7" height="5.7"/>
		<rect x="105.5" y="148.7" class="st6" width="10.7" height="5.7"/>
		<rect x="105.5" y="157" class="st6" width="10.7" height="5.7"/>
		<rect x="105.5" y="165.3" class="st6" width="10.7" height="5.7"/>
		<rect x="124.7" y="124.9" class="st6" width="5.3" height="5.7"/>
		<rect x="124.7" y="132.6" class="st6" width="5.3" height="5.7"/>
		<rect x="124.7" y="141.1" class="st6" width="5.3" height="5.7"/>
		<rect x="124.7" y="148.7" class="st6" width="5.3" height="5.7"/>
		<rect x="124.7" y="157" class="st6" width="5.3" height="5.7"/>
		<rect x="124.7" y="165.3" class="st6" width="5.3" height="5.7"/>
		<rect x="48.7" y="124.9" class="st6" width="5.3" height="5.7"/>
		<rect x="48.7" y="132.6" class="st6" width="5.3" height="5.7"/>
		<rect x="48.7" y="141.1" class="st6" width="5.3" height="5.7"/>
		<rect x="48.7" y="148.7" class="st6" width="5.3" height="5.7"/>
		<rect x="48.7" y="157" class="st6" width="5.3" height="5.7"/>
		<rect x="48.7" y="165.3" class="st6" width="5.3" height="5.7"/>
		<rect x="78.3" y="175" class="st6" width="19.8" height="15.2"/>
	</g>
</g>
<g>
	<linearGradient id="SVGID_5_" gradientUnits="userSpaceOnUse" x1="457.9178" y1="151.7148" x2="513.1969" y2="151.7148">
		<stop  offset="0" style="stop-color:#490F5B"/>
		<stop  offset="1" style="stop-color:#5F2C8B"/>
	</linearGradient>
	<rect x="457.9" y="111.9" class="st7" width="55.3" height="79.6"/>
	<g>
		<g>
			<rect x="459.9" y="115.3" class="st8" width="4.2" height="7.3"/>
			<rect x="465.6" y="115.3" class="st8" width="4.2" height="7.3"/>
			<rect x="471.4" y="115.3" class="st8" width="4.2" height="7.3"/>
			<rect x="495" y="115.3" class="st8" width="4.2" height="7.3"/>
			<rect x="500.7" y="115.3" class="st8" width="4.2" height="7.3"/>
			<rect x="506.4" y="115.3" class="st8" width="4.2" height="7.3"/>
			<rect x="477.6" y="115.3" class="st8" width="4.2" height="3.4"/>
			<rect x="483" y="115.3" class="st8" width="4.2" height="3.4"/>
			<rect x="488.5" y="115.3" class="st8" width="4.2" height="3.4"/>
		</g>
		<g>
			<rect x="459.9" y="127.9" class="st8" width="4.2" height="7.3"/>
			<rect x="465.6" y="127.9" class="st8" width="4.2" height="7.3"/>
			<rect x="471.4" y="127.9" class="st8" width="4.2" height="7.3"/>
			<rect x="495" y="127.9" class="st8" width="4.2" height="7.3"/>
			<rect x="500.7" y="127.9" class="st8" width="4.2" height="7.3"/>
			<rect x="506.4" y="127.9" class="st8" width="4.2" height="7.3"/>
			<rect x="477.6" y="127.9" class="st8" width="4.2" height="3.4"/>
			<rect x="483" y="127.9" class="st8" width="4.2" height="3.4"/>
			<rect x="488.5" y="127.9" class="st8" width="4.2" height="3.4"/>
		</g>
		<g>
			<rect x="459.9" y="141.1" class="st8" width="4.2" height="7.3"/>
			<rect x="465.6" y="141.1" class="st8" width="4.2" height="7.3"/>
			<rect x="471.4" y="141.1" class="st8" width="4.2" height="7.3"/>
			<rect x="495" y="141.1" class="st8" width="4.2" height="7.3"/>
			<rect x="500.7" y="141.1" class="st8" width="4.2" height="7.3"/>
			<rect x="506.4" y="141.1" class="st8" width="4.2" height="7.3"/>
			<rect x="477.6" y="141.1" class="st8" width="4.2" height="3.4"/>
			<rect x="483" y="141.1" class="st8" width="4.2" height="3.4"/>
			<rect x="488.5" y="141.1" class="st8" width="4.2" height="3.4"/>
		</g>
		<g>
			<rect x="459.9" y="154" class="st8" width="4.2" height="7.3"/>
			<rect x="465.6" y="154" class="st8" width="4.2" height="7.3"/>
			<rect x="471.4" y="154" class="st8" width="4.2" height="7.3"/>
			<rect x="495" y="154" class="st8" width="4.2" height="7.3"/>
			<rect x="500.7" y="154" class="st8" width="4.2" height="7.3"/>
			<rect x="506.4" y="154" class="st8" width="4.2" height="7.3"/>
			<rect x="477.6" y="154" class="st8" width="4.2" height="3.4"/>
			<rect x="483" y="154" class="st8" width="4.2" height="3.4"/>
			<rect x="488.5" y="154" class="st8" width="4.2" height="3.4"/>
		</g>
		<g>
			<rect x="459.9" y="166.3" class="st8" width="4.2" height="7.3"/>
			<rect x="465.6" y="166.3" class="st8" width="4.2" height="7.3"/>
			<rect x="471.4" y="166.3" class="st8" width="4.2" height="7.3"/>
			<rect x="495" y="166.3" class="st8" width="4.2" height="7.3"/>
			<rect x="500.7" y="166.3" class="st8" width="4.2" height="7.3"/>
			<rect x="506.4" y="166.3" class="st8" width="4.2" height="7.3"/>
			<rect x="477.6" y="166.3" class="st8" width="4.2" height="3.4"/>
			<rect x="483" y="166.3" class="st8" width="4.2" height="3.4"/>
			<rect x="488.5" y="166.3" class="st8" width="4.2" height="3.4"/>
		</g>
	</g>
</g>
<g>
	<linearGradient id="SVGID_6_" gradientUnits="userSpaceOnUse" x1="513.1969" y1="172.6247" x2="586.4752" y2="172.6247">
		<stop  offset="0" style="stop-color:#0083BB"/>
		<stop  offset="1" style="stop-color:#25ABFF"/>
	</linearGradient>
	<rect x="513.2" y="153.7" class="st9" width="73.3" height="37.8"/>
	<g>
		<rect x="518.2" y="179.8" class="st10" width="9.1" height="11.3"/>
		<rect x="529.5" y="179.8" class="st10" width="9.1" height="11.3"/>
		<rect x="540.5" y="179.8" class="st10" width="9.1" height="11.3"/>
		<rect x="551.8" y="179.8" class="st10" width="9.1" height="11.3"/>
		<rect x="562.9" y="179.8" class="st10" width="9.1" height="11.3"/>
		<rect x="573.9" y="179.8" class="st10" width="9.1" height="11.3"/>
		<rect x="522.8" y="172.6" class="st10" width="6.9" height="2.3"/>
		<rect x="538.5" y="172.6" class="st10" width="6.9" height="2.3"/>
		<rect x="554.2" y="172.6" class="st10" width="6.9" height="2.3"/>
		<rect x="570.3" y="172.6" class="st10" width="6.9" height="2.3"/>
		<rect x="523.1" y="160.4" class="st10" width="6.5" height="8"/>
		<rect x="538.7" y="160.4" class="st10" width="6.5" height="8"/>
		<rect x="554.3" y="160.4" class="st10" width="6.5" height="8"/>
		<rect x="570.4" y="160.4" class="st10" width="6.5" height="8"/>
	</g>
</g>
<g>
	<linearGradient id="SVGID_7_" gradientUnits="userSpaceOnUse" x1="587.6301" y1="157.8097" x2="629.6113" y2="157.8097">
		<stop  offset="0" style="stop-color:#B34514"/>
		<stop  offset="1" style="stop-color:#E1680D"/>
	</linearGradient>
	<polyline class="st11" points="587.6,192.5 629.6,192.5 629.6,130.6 609.1,123.1 588.3,130.5 588.3,192.3 	"/>
	<g>
		<rect x="591.2" y="135" class="st12" width="3.1" height="8.5"/>
		<rect x="597.6" y="135" class="st12" width="3.1" height="8.5"/>
		<rect x="603.8" y="135" class="st12" width="3.1" height="8.5"/>
		<rect x="610.4" y="135" class="st12" width="3.1" height="8.5"/>
		<rect x="616.7" y="135" class="st12" width="3.1" height="8.5"/>
		<rect x="623.3" y="135" class="st12" width="3.1" height="8.5"/>
	</g>
	<g>
		<rect x="591.2" y="147.7" class="st12" width="3.1" height="8.5"/>
		<rect x="597.6" y="147.7" class="st12" width="3.1" height="8.5"/>
		<rect x="603.8" y="147.7" class="st12" width="3.1" height="8.5"/>
		<rect x="610.4" y="147.7" class="st12" width="3.1" height="8.5"/>
		<rect x="616.7" y="147.7" class="st12" width="3.1" height="8.5"/>
		<rect x="623.3" y="147.7" class="st12" width="3.1" height="8.5"/>
	</g>
	<g>
		<rect x="591.2" y="159.6" class="st12" width="3.1" height="8.5"/>
		<rect x="597.6" y="159.6" class="st12" width="3.1" height="8.5"/>
		<rect x="603.8" y="159.6" class="st12" width="3.1" height="8.5"/>
		<rect x="610.4" y="159.6" class="st12" width="3.1" height="8.5"/>
		<rect x="616.7" y="159.6" class="st12" width="3.1" height="8.5"/>
		<rect x="623.3" y="159.6" class="st12" width="3.1" height="8.5"/>
	</g>
	<g>
		<rect x="591.2" y="172.1" class="st12" width="3.1" height="8.5"/>
		<rect x="597.6" y="172.1" class="st12" width="3.1" height="8.5"/>
		<rect x="603.8" y="172.1" class="st12" width="3.1" height="8.5"/>
		<rect x="610.4" y="172.1" class="st12" width="3.1" height="8.5"/>
		<rect x="616.7" y="172.1" class="st12" width="3.1" height="8.5"/>
		<rect x="623.3" y="172.1" class="st12" width="3.1" height="8.5"/>
	</g>
	<rect x="597.5" y="182.8" class="st12" width="9.8" height="8.7"/>
	<rect x="610.4" y="182.7" class="st12" width="9.5" height="9"/>
</g>
<g>
	<linearGradient id="SVGID_8_" gradientUnits="userSpaceOnUse" x1="632.452" y1="156.333" x2="657.7963" y2="156.333">
		<stop  offset="0" style="stop-color:#FA9A0F"/>
		<stop  offset="1" style="stop-color:#FFEB06"/>
	</linearGradient>
	<rect x="632.5" y="120.3" class="st13" width="25.3" height="72"/>
	<rect x="634.8" y="125.1" class="st4" width="4.7" height="8.4"/>
	<rect x="642.3" y="125.1" class="st4" width="4.7" height="8.4"/>
	<rect x="649.6" y="125.1" class="st4" width="4.7" height="8.4"/>
	<rect x="634.8" y="136" class="st4" width="4.7" height="8.4"/>
	<rect x="642.3" y="136" class="st4" width="4.7" height="8.4"/>
	<rect x="649.6" y="136" class="st4" width="4.7" height="8.4"/>
	<rect x="634.8" y="147.6" class="st4" width="4.7" height="8.4"/>
	<rect x="642.3" y="147.6" class="st4" width="4.7" height="8.4"/>
	<rect x="649.6" y="147.6" class="st4" width="4.7" height="8.4"/>
	<rect x="634.8" y="158.5" class="st4" width="4.7" height="8.4"/>
	<rect x="642.3" y="158.5" class="st4" width="4.7" height="8.4"/>
	<rect x="649.6" y="158.5" class="st4" width="4.7" height="8.4"/>
	<rect x="634.8" y="170.1" class="st4" width="4.7" height="8.4"/>
	<rect x="642.3" y="170.1" class="st4" width="4.7" height="8.4"/>
	<rect x="649.6" y="170.1" class="st4" width="4.7" height="8.4"/>
	<rect x="640" y="182.7" class="st4" width="9.1" height="8.6"/>
	<linearGradient id="SVGID_9_" gradientUnits="userSpaceOnUse" x1="657.7458" y1="168.6024" x2="683.6181" y2="168.6024">
		<stop  offset="0" style="stop-color:#FA9A0F"/>
		<stop  offset="1" style="stop-color:#FFEB06"/>
	</linearGradient>
	<rect x="657.7" y="144.6" class="st14" width="25.9" height="48"/>
	<rect x="660.8" y="151" class="st4" width="7" height="7"/>
	<rect x="671.9" y="151" class="st4" width="7" height="7"/>
	<rect x="660.8" y="160.4" class="st4" width="7" height="7"/>
	<rect x="671.9" y="160.4" class="st4" width="7" height="7"/>
	<rect x="660.8" y="170.6" class="st4" width="7" height="7"/>
	<rect x="671.9" y="170.6" class="st4" width="7" height="7"/>
	<rect x="665.8" y="181.9" class="st4" width="9.1" height="9.6"/>
</g>
<g>
	<linearGradient id="SVGID_10_" gradientUnits="userSpaceOnUse" x1="683.3771" y1="163.4644" x2="709.2493" y2="163.4644">
		<stop  offset="0" style="stop-color:#00729D"/>
		<stop  offset="1" style="stop-color:#0395AE"/>
	</linearGradient>
	<rect x="683.4" y="135.3" class="st15" width="25.9" height="56.3"/>
	<g>
		<rect x="686.3" y="139.7" class="st6" width="4.3" height="4.4"/>
		<rect x="693.7" y="139.7" class="st6" width="4.3" height="4.4"/>
		<rect x="700.8" y="139.7" class="st6" width="4.3" height="4.4"/>
	</g>
	<g>
		<rect x="686.3" y="146.3" class="st6" width="4.3" height="4.4"/>
		<rect x="693.7" y="146.3" class="st6" width="4.3" height="4.4"/>
		<rect x="700.8" y="146.3" class="st6" width="4.3" height="4.4"/>
	</g>
	<g>
		<rect x="686.3" y="153.4" class="st6" width="4.3" height="4.4"/>
		<rect x="693.7" y="153.4" class="st6" width="4.3" height="4.4"/>
		<rect x="700.8" y="153.4" class="st6" width="4.3" height="4.4"/>
	</g>
	<g>
		<rect x="686.3" y="161.6" class="st6" width="4.3" height="4.4"/>
		<rect x="693.7" y="161.6" class="st6" width="4.3" height="4.4"/>
		<rect x="700.8" y="161.6" class="st6" width="4.3" height="4.4"/>
	</g>
	<g>
		<rect x="686.3" y="168.5" class="st6" width="4.3" height="4.4"/>
		<rect x="693.7" y="168.5" class="st6" width="4.3" height="4.4"/>
		<rect x="700.8" y="168.5" class="st6" width="4.3" height="4.4"/>
	</g>
	<g>
		<rect x="686.3" y="175.6" class="st6" width="4.3" height="4.4"/>
		<rect x="693.7" y="175.6" class="st6" width="4.3" height="4.4"/>
		<rect x="700.8" y="175.6" class="st6" width="4.3" height="4.4"/>
	</g>
	<rect x="691.4" y="182.9" class="st6" width="9.8" height="8.3"/>
</g>
<g>
	<polygon class="st16" points="36,191.6 36,122.3 38.7,122.3 38.7,191.9 	"/>
	<polygon class="st16" points="40.6,124.6 40.6,138.4 58.3,138.4 58.3,124.7 	"/>
	<polygon class="st16" points="40.7,141.8 40.7,147.6 59,147.6 59,141.9 	"/>
	<rect x="37.8" y="144" class="st16" width="2.9" height="1.4"/>
	<rect x="37.8" y="130.5" class="st16" width="2.8" height="2.3"/>
</g>
<g>
	<g>
		<linearGradient id="SVGID_11_" gradientUnits="userSpaceOnUse" x1="228.0402" y1="126.323" x2="304.341" y2="126.323">
			<stop  offset="0" style="stop-color:#114B95"/>
			<stop  offset="1" style="stop-color:#0093D6"/>
		</linearGradient>
		<path class="st17" d="M228,192.6l0-36.5h5.4V60h65.2v96.8h5.7l-0.1,35.6C304.3,192.5,230.7,192.7,228,192.6z"/>
		<g>
			<rect x="230.7" y="159.2" class="st18" width="8.3" height="11.2"/>
			<rect x="243.6" y="159.2" class="st18" width="8.3" height="11.2"/>
			<rect x="238.8" y="138.4" class="st18" width="6.4" height="9.8"/>
			<rect x="248.7" y="138.4" class="st18" width="6.4" height="9.8"/>
			<rect x="258.3" y="138.4" class="st18" width="6.4" height="9.8"/>
			<rect x="268.2" y="138.4" class="st18" width="6.4" height="9.8"/>
			<rect x="278.2" y="138.4" class="st18" width="6.4" height="9.8"/>
			<rect x="287.9" y="138.4" class="st18" width="6.4" height="9.8"/>
			<rect x="238.8" y="124.1" class="st18" width="6.4" height="9.8"/>
			<rect x="248.7" y="124.1" class="st18" width="6.4" height="9.8"/>
			<rect x="258.3" y="124.1" class="st18" width="6.4" height="9.8"/>
			<rect x="268.2" y="124.1" class="st18" width="6.4" height="9.8"/>
			<rect x="278.2" y="124.1" class="st18" width="6.4" height="9.8"/>
			<rect x="287.9" y="124.1" class="st18" width="6.4" height="9.8"/>
			<rect x="238.8" y="110.3" class="st18" width="6.4" height="9.8"/>
			<rect x="248.7" y="110.3" class="st18" width="6.4" height="9.8"/>
			<rect x="258.3" y="110.3" class="st18" width="6.4" height="9.8"/>
			<rect x="268.2" y="110.3" class="st18" width="6.4" height="9.8"/>
			<rect x="278.2" y="110.3" class="st18" width="6.4" height="9.8"/>
			<rect x="287.9" y="110.3" class="st18" width="6.4" height="9.8"/>
			<rect x="238.8" y="96.7" class="st18" width="6.4" height="9.8"/>
			<rect x="248.7" y="96.7" class="st18" width="6.4" height="9.8"/>
			<rect x="258.3" y="96.7" class="st18" width="6.4" height="9.8"/>
			<rect x="268.2" y="96.7" class="st18" width="6.4" height="9.8"/>
			<rect x="278.2" y="96.7" class="st18" width="6.4" height="9.8"/>
			<rect x="287.9" y="96.7" class="st18" width="6.4" height="9.8"/>
			<rect x="238.8" y="82.4" class="st18" width="6.4" height="9.8"/>
			<rect x="248.7" y="82.4" class="st18" width="6.4" height="9.8"/>
			<rect x="258.3" y="82.4" class="st18" width="6.4" height="9.8"/>
			<rect x="268.2" y="82.4" class="st18" width="6.4" height="9.8"/>
			<rect x="278.2" y="82.4" class="st18" width="6.4" height="9.8"/>
			<rect x="287.9" y="82.4" class="st18" width="6.4" height="9.8"/>
			<rect x="238.8" y="63.9" class="st18" width="6.4" height="15.3"/>
			<rect x="248.7" y="63.9" class="st18" width="6.4" height="15.3"/>
			<rect x="258.3" y="63.9" class="st18" width="6.4" height="15.3"/>
			<rect x="268.2" y="63.9" class="st18" width="6.4" height="15.3"/>
			<rect x="278.2" y="63.9" class="st18" width="6.4" height="15.3"/>
			<rect x="287.9" y="63.9" class="st18" width="6.4" height="15.3"/>
			<rect x="256.1" y="159.2" class="st18" width="8.3" height="11.2"/>
			<rect x="268.7" y="159.2" class="st18" width="8.3" height="11.2"/>
			<rect x="281.5" y="159.2" class="st18" width="8.3" height="11.2"/>
			<rect x="294" y="159.2" class="st18" width="8.3" height="11.2"/>
		</g>
	</g>
	<linearGradient id="SVGID_12_" gradientUnits="userSpaceOnUse" x1="381.5198" y1="77.093" x2="381.5198" y2="191.8267">
		<stop  offset="0" style="stop-color:#B34514"/>
		<stop  offset="1" style="stop-color:#E1680D"/>
	</linearGradient>
	<path class="st19" d="M455.5,114.4V96.6V84.3l-1.1-6.1l-1.3,2.9l-0.3,4.5c0,0-9.6-9.6-19.5,0l-1.3-4l-1.1-4.5l-1.1,5.1l-1.3,2.1
		v28.5l-1.3,2.7l1.1,1.6v13.1l-1.8-3.1l-4.6-6.3c0,0,1.2-6-3.5-8.2v-9h-9v-2.3h-6.1c0,0-3.1-5.6-10.1-7l-0.5-2.3h-3.4
		c0,0-2.5-3.4-6.3-3.8v-6.6h2.3v-1.2h-2.3v-3h-1.2v3h-2.3v1.2h2.3v6.6c-2,0.1-4.3,1.1-6.7,3.8h-4.1l-0.8,2.7c0,0-7.5-0.5-10.2,6.4
		h-5.8v2.6h-9.2v8.4c0,0-3.5,2.4-3.5,7.8l-4.4,7.3l-2.4,3.4v-13.9l1.2-3.1h-2.1V87.6v-5.5l-1.1-4.4l-1.2,3.7v4.1l-1.4-0.2
		c0,0-9.2-10.5-19.2,0.5l-0.2-2.9l-1.1-4.6l-1.8,3.5l-0.3,4.9v25.7h-2.1l1.7,4.4v46.1c0,0,0.7,29,0.3,29h148.1v-74.2h2.1v-3.2H455.5
		z M325.4,105.1h-8.9c0.4-0.2,0-10.8,0-10.8c4.9-5.2,8.9,0,8.9,0V105.1z M446.7,105.1h-8.9c0.4-0.2,0-10.8,0-10.8
		c4.9-5.2,8.9,0,8.9,0V105.1z"/>
	<g>
		<rect x="376.8" y="119.3" class="st12" width="10.9" height="17.7"/>
		<circle class="st12" cx="381.6" cy="106.8" r="3.6"/>
		<path class="st12" d="M435.8,181h13v-23.5c0,0-5.8-11.3-13,0C435.8,157.5,436.3,180.5,435.8,181z"/>
		<path class="st12" d="M313.9,181h13v-23.5c0,0-5.8-11.3-13,0C313.9,157.5,314.4,180.5,313.9,181z"/>
		<path class="st12" d="M315.9,138.9h8.9v-14.9c0,0-3.9-7.2-8.9,0C315.9,124.1,316.3,138.6,315.9,138.9z"/>
		<path class="st12" d="M437.8,138.9h8.9v-14.9c0,0-3.9-7.2-8.9,0C437.8,124.1,438.2,138.6,437.8,138.9z"/>
	</g>
</g>
<g>
	<g>
		<linearGradient id="SVGID_13_" gradientUnits="userSpaceOnUse" x1="12.6051" y1="198.4286" x2="12.6051" y2="244.5712">
			<stop  offset="0" style="stop-color:#17538F"/>
			<stop  offset="1" style="stop-color:#76A5CF"/>
		</linearGradient>
		<rect x="10.3" y="198.4" class="st20" width="4.6" height="46.1"/>
		<linearGradient id="SVGID_14_" gradientUnits="userSpaceOnUse" x1="20.0171" y1="198.4286" x2="20.0171" y2="244.5712">
			<stop  offset="0" style="stop-color:#17538F"/>
			<stop  offset="1" style="stop-color:#76A5CF"/>
		</linearGradient>
		<rect x="17.7" y="198.4" class="st21" width="4.6" height="46.1"/>
		<linearGradient id="SVGID_15_" gradientUnits="userSpaceOnUse" x1="27.8352" y1="198.4286" x2="27.8352" y2="244.5712">
			<stop  offset="0" style="stop-color:#17538F"/>
			<stop  offset="1" style="stop-color:#76A5CF"/>
		</linearGradient>
		<rect x="25.5" y="198.4" class="st22" width="4.6" height="46.1"/>
		<linearGradient id="SVGID_16_" gradientUnits="userSpaceOnUse" x1="34.7488" y1="198.4286" x2="34.7488" y2="244.5712">
			<stop  offset="0" style="stop-color:#17538F"/>
			<stop  offset="1" style="stop-color:#76A5CF"/>
		</linearGradient>
		<rect x="32.5" y="198.4" class="st23" width="4.6" height="46.1"/>
		<linearGradient id="SVGID_17_" gradientUnits="userSpaceOnUse" x1="42.5668" y1="198.4286" x2="42.5668" y2="244.5712">
			<stop  offset="0" style="stop-color:#17538F"/>
			<stop  offset="1" style="stop-color:#76A5CF"/>
		</linearGradient>
		<rect x="40.3" y="198.4" class="st24" width="4.6" height="46.1"/>
		<linearGradient id="SVGID_18_" gradientUnits="userSpaceOnUse" x1="49.4085" y1="198.4286" x2="49.4085" y2="244.5712">
			<stop  offset="0" style="stop-color:#17538F"/>
			<stop  offset="1" style="stop-color:#76A5CF"/>
		</linearGradient>
		<rect x="47.1" y="198.4" class="st25" width="4.6" height="46.1"/>
		<linearGradient id="SVGID_19_" gradientUnits="userSpaceOnUse" x1="57.2266" y1="198.4286" x2="57.2266" y2="244.5712">
			<stop  offset="0" style="stop-color:#17538F"/>
			<stop  offset="1" style="stop-color:#76A5CF"/>
		</linearGradient>
		<rect x="54.9" y="198.4" class="st26" width="4.6" height="46.1"/>
		<linearGradient id="SVGID_20_" gradientUnits="userSpaceOnUse" x1="64.1402" y1="198.4286" x2="64.1402" y2="244.5712">
			<stop  offset="0" style="stop-color:#17538F"/>
			<stop  offset="1" style="stop-color:#76A5CF"/>
		</linearGradient>
		<rect x="61.8" y="198.4" class="st27" width="4.6" height="46.1"/>
		<linearGradient id="SVGID_21_" gradientUnits="userSpaceOnUse" x1="71.9583" y1="198.4286" x2="71.9583" y2="244.5712">
			<stop  offset="0" style="stop-color:#17538F"/>
			<stop  offset="1" style="stop-color:#76A5CF"/>
		</linearGradient>
		<rect x="69.7" y="198.4" class="st28" width="4.6" height="46.1"/>
		<linearGradient id="SVGID_22_" gradientUnits="userSpaceOnUse" x1="78.3694" y1="198.4286" x2="78.3694" y2="244.5712">
			<stop  offset="0" style="stop-color:#17538F"/>
			<stop  offset="1" style="stop-color:#76A5CF"/>
		</linearGradient>
		<rect x="76.1" y="198.4" class="st29" width="4.6" height="46.1"/>
		<linearGradient id="SVGID_23_" gradientUnits="userSpaceOnUse" x1="85.7813" y1="198.4286" x2="85.7813" y2="244.5712">
			<stop  offset="0" style="stop-color:#17538F"/>
			<stop  offset="1" style="stop-color:#76A5CF"/>
		</linearGradient>
		<rect x="83.5" y="198.4" class="st30" width="4.6" height="46.1"/>
		<linearGradient id="SVGID_24_" gradientUnits="userSpaceOnUse" x1="93.5994" y1="198.4286" x2="93.5994" y2="244.5712">
			<stop  offset="0" style="stop-color:#17538F"/>
			<stop  offset="1" style="stop-color:#76A5CF"/>
		</linearGradient>
		<rect x="91.3" y="198.4" class="st31" width="4.6" height="46.1"/>
		<linearGradient id="SVGID_25_" gradientUnits="userSpaceOnUse" x1="100.513" y1="198.4286" x2="100.513" y2="244.5712">
			<stop  offset="0" style="stop-color:#17538F"/>
			<stop  offset="1" style="stop-color:#76A5CF"/>
		</linearGradient>
		<rect x="98.2" y="198.4" class="st32" width="4.6" height="46.1"/>
		<linearGradient id="SVGID_26_" gradientUnits="userSpaceOnUse" x1="108.3311" y1="198.4286" x2="108.3311" y2="244.5712">
			<stop  offset="0" style="stop-color:#17538F"/>
			<stop  offset="1" style="stop-color:#76A5CF"/>
		</linearGradient>
		<rect x="106" y="198.4" class="st33" width="4.6" height="46.1"/>
		<linearGradient id="SVGID_27_" gradientUnits="userSpaceOnUse" x1="115.1728" y1="198.4286" x2="115.1728" y2="244.5712">
			<stop  offset="0" style="stop-color:#17538F"/>
			<stop  offset="1" style="stop-color:#76A5CF"/>
		</linearGradient>
		<rect x="112.9" y="198.4" class="st34" width="4.6" height="46.1"/>
		<linearGradient id="SVGID_28_" gradientUnits="userSpaceOnUse" x1="122.9909" y1="198.4286" x2="122.9909" y2="244.5712">
			<stop  offset="0" style="stop-color:#17538F"/>
			<stop  offset="1" style="stop-color:#76A5CF"/>
		</linearGradient>
		<rect x="120.7" y="198.4" class="st35" width="4.6" height="46.1"/>
		<linearGradient id="SVGID_29_" gradientUnits="userSpaceOnUse" x1="130.9036" y1="198.4286" x2="130.9036" y2="244.5712">
			<stop  offset="0" style="stop-color:#17538F"/>
			<stop  offset="1" style="stop-color:#76A5CF"/>
		</linearGradient>
		<rect x="128.6" y="198.4" class="st36" width="4.6" height="46.1"/>
		<linearGradient id="SVGID_30_" gradientUnits="userSpaceOnUse" x1="138.7217" y1="198.4286" x2="138.7217" y2="244.5712">
			<stop  offset="0" style="stop-color:#17538F"/>
			<stop  offset="1" style="stop-color:#76A5CF"/>
		</linearGradient>
		<rect x="136.4" y="198.4" class="st37" width="4.6" height="46.1"/>
		<linearGradient id="SVGID_31_" gradientUnits="userSpaceOnUse" x1="145.7171" y1="198.4286" x2="145.7171" y2="244.5712">
			<stop  offset="0" style="stop-color:#17538F"/>
			<stop  offset="1" style="stop-color:#76A5CF"/>
		</linearGradient>
		<rect x="143.4" y="198.4" class="st38" width="4.6" height="46.1"/>
		<linearGradient id="SVGID_32_" gradientUnits="userSpaceOnUse" x1="153.129" y1="198.4286" x2="153.129" y2="244.5712">
			<stop  offset="0" style="stop-color:#17538F"/>
			<stop  offset="1" style="stop-color:#76A5CF"/>
		</linearGradient>
		<rect x="150.8" y="198.4" class="st39" width="4.6" height="46.1"/>
		<linearGradient id="SVGID_33_" gradientUnits="userSpaceOnUse" x1="160.9471" y1="198.4286" x2="160.9471" y2="244.5712">
			<stop  offset="0" style="stop-color:#17538F"/>
			<stop  offset="1" style="stop-color:#76A5CF"/>
		</linearGradient>
		<rect x="158.6" y="198.4" class="st40" width="4.6" height="46.1"/>
		<linearGradient id="SVGID_34_" gradientUnits="userSpaceOnUse" x1="167.8607" y1="198.4286" x2="167.8607" y2="244.5712">
			<stop  offset="0" style="stop-color:#17538F"/>
			<stop  offset="1" style="stop-color:#76A5CF"/>
		</linearGradient>
		<rect x="165.6" y="198.4" class="st41" width="4.6" height="46.1"/>
		<linearGradient id="SVGID_35_" gradientUnits="userSpaceOnUse" x1="175.6788" y1="198.4286" x2="175.6788" y2="244.5712">
			<stop  offset="0" style="stop-color:#17538F"/>
			<stop  offset="1" style="stop-color:#76A5CF"/>
		</linearGradient>
		<rect x="173.4" y="198.4" class="st42" width="4.6" height="46.1"/>
		<linearGradient id="SVGID_36_" gradientUnits="userSpaceOnUse" x1="182.5204" y1="198.4286" x2="182.5204" y2="244.5712">
			<stop  offset="0" style="stop-color:#17538F"/>
			<stop  offset="1" style="stop-color:#76A5CF"/>
		</linearGradient>
		<rect x="180.2" y="198.4" class="st43" width="4.6" height="46.1"/>
		<linearGradient id="SVGID_37_" gradientUnits="userSpaceOnUse" x1="190.3385" y1="198.4286" x2="190.3385" y2="244.5712">
			<stop  offset="0" style="stop-color:#17538F"/>
			<stop  offset="1" style="stop-color:#76A5CF"/>
		</linearGradient>
		<rect x="188" y="198.4" class="st44" width="4.6" height="46.1"/>
		<linearGradient id="SVGID_38_" gradientUnits="userSpaceOnUse" x1="197.2521" y1="198.4286" x2="197.2521" y2="244.5712">
			<stop  offset="0" style="stop-color:#17538F"/>
			<stop  offset="1" style="stop-color:#76A5CF"/>
		</linearGradient>
		<rect x="195" y="198.4" class="st45" width="4.6" height="46.1"/>
		<linearGradient id="SVGID_39_" gradientUnits="userSpaceOnUse" x1="205.0702" y1="198.4286" x2="205.0702" y2="244.5712">
			<stop  offset="0" style="stop-color:#17538F"/>
			<stop  offset="1" style="stop-color:#76A5CF"/>
		</linearGradient>
		<rect x="202.8" y="198.4" class="st46" width="4.6" height="46.1"/>
		<linearGradient id="SVGID_40_" gradientUnits="userSpaceOnUse" x1="211.4813" y1="198.4286" x2="211.4813" y2="244.5712">
			<stop  offset="0" style="stop-color:#17538F"/>
			<stop  offset="1" style="stop-color:#76A5CF"/>
		</linearGradient>
		<rect x="209.2" y="198.4" class="st47" width="4.6" height="46.1"/>
		<linearGradient id="SVGID_41_" gradientUnits="userSpaceOnUse" x1="218.8933" y1="198.4286" x2="218.8933" y2="244.5712">
			<stop  offset="0" style="stop-color:#17538F"/>
			<stop  offset="1" style="stop-color:#76A5CF"/>
		</linearGradient>
		<rect x="216.6" y="198.4" class="st48" width="4.6" height="46.1"/>
		<linearGradient id="SVGID_42_" gradientUnits="userSpaceOnUse" x1="226.7113" y1="198.4286" x2="226.7113" y2="244.5712">
			<stop  offset="0" style="stop-color:#17538F"/>
			<stop  offset="1" style="stop-color:#76A5CF"/>
		</linearGradient>
		<rect x="224.4" y="198.4" class="st49" width="4.6" height="46.1"/>
		<linearGradient id="SVGID_43_" gradientUnits="userSpaceOnUse" x1="233.625" y1="198.4286" x2="233.625" y2="244.5712">
			<stop  offset="0" style="stop-color:#17538F"/>
			<stop  offset="1" style="stop-color:#76A5CF"/>
		</linearGradient>
		<rect x="231.3" y="198.4" class="st50" width="4.6" height="46.1"/>
		<linearGradient id="SVGID_44_" gradientUnits="userSpaceOnUse" x1="241.4431" y1="198.4286" x2="241.4431" y2="244.5712">
			<stop  offset="0" style="stop-color:#17538F"/>
			<stop  offset="1" style="stop-color:#76A5CF"/>
		</linearGradient>
		<rect x="239.1" y="198.4" class="st51" width="4.6" height="46.1"/>
		<linearGradient id="SVGID_45_" gradientUnits="userSpaceOnUse" x1="248.2847" y1="198.4286" x2="248.2847" y2="244.5712">
			<stop  offset="0" style="stop-color:#17538F"/>
			<stop  offset="1" style="stop-color:#76A5CF"/>
		</linearGradient>
		<rect x="246" y="198.4" class="st52" width="4.6" height="46.1"/>
		<linearGradient id="SVGID_46_" gradientUnits="userSpaceOnUse" x1="256.1028" y1="198.4286" x2="256.1028" y2="244.5712">
			<stop  offset="0" style="stop-color:#17538F"/>
			<stop  offset="1" style="stop-color:#76A5CF"/>
		</linearGradient>
		<rect x="253.8" y="198.4" class="st53" width="4.6" height="46.1"/>
		<linearGradient id="SVGID_47_" gradientUnits="userSpaceOnUse" x1="263.0164" y1="198.4286" x2="263.0164" y2="244.5712">
			<stop  offset="0" style="stop-color:#17538F"/>
			<stop  offset="1" style="stop-color:#76A5CF"/>
		</linearGradient>
		<rect x="260.7" y="198.4" class="st54" width="4.6" height="46.1"/>
		<linearGradient id="SVGID_48_" gradientUnits="userSpaceOnUse" x1="270.8345" y1="198.4286" x2="270.8345" y2="244.5712">
			<stop  offset="0" style="stop-color:#17538F"/>
			<stop  offset="1" style="stop-color:#76A5CF"/>
		</linearGradient>
		<rect x="268.5" y="198.4" class="st55" width="4.6" height="46.1"/>
		<linearGradient id="SVGID_49_" gradientUnits="userSpaceOnUse" x1="278.8338" y1="198.4286" x2="278.8338" y2="244.5712">
			<stop  offset="0" style="stop-color:#17538F"/>
			<stop  offset="1" style="stop-color:#76A5CF"/>
		</linearGradient>
		<rect x="276.5" y="198.4" class="st56" width="4.6" height="46.1"/>
		<linearGradient id="SVGID_50_" gradientUnits="userSpaceOnUse" x1="286.2458" y1="198.4286" x2="286.2458" y2="244.5712">
			<stop  offset="0" style="stop-color:#17538F"/>
			<stop  offset="1" style="stop-color:#76A5CF"/>
		</linearGradient>
		<rect x="283.9" y="198.4" class="st57" width="4.6" height="46.1"/>
		<linearGradient id="SVGID_51_" gradientUnits="userSpaceOnUse" x1="294.0638" y1="198.4286" x2="294.0638" y2="244.5712">
			<stop  offset="0" style="stop-color:#17538F"/>
			<stop  offset="1" style="stop-color:#76A5CF"/>
		</linearGradient>
		<rect x="291.8" y="198.4" class="st58" width="4.6" height="46.1"/>
		<linearGradient id="SVGID_52_" gradientUnits="userSpaceOnUse" x1="300.9774" y1="198.4286" x2="300.9774" y2="244.5712">
			<stop  offset="0" style="stop-color:#17538F"/>
			<stop  offset="1" style="stop-color:#76A5CF"/>
		</linearGradient>
		<rect x="298.7" y="198.4" class="st59" width="4.6" height="46.1"/>
		<linearGradient id="SVGID_53_" gradientUnits="userSpaceOnUse" x1="308.7955" y1="198.4286" x2="308.7955" y2="244.5712">
			<stop  offset="0" style="stop-color:#17538F"/>
			<stop  offset="1" style="stop-color:#76A5CF"/>
		</linearGradient>
		<rect x="306.5" y="198.4" class="st60" width="4.6" height="46.1"/>
		<linearGradient id="SVGID_54_" gradientUnits="userSpaceOnUse" x1="315.6372" y1="198.4286" x2="315.6372" y2="244.5712">
			<stop  offset="0" style="stop-color:#17538F"/>
			<stop  offset="1" style="stop-color:#76A5CF"/>
		</linearGradient>
		<rect x="313.3" y="198.4" class="st61" width="4.6" height="46.1"/>
		<linearGradient id="SVGID_55_" gradientUnits="userSpaceOnUse" x1="323.4553" y1="198.4286" x2="323.4553" y2="244.5712">
			<stop  offset="0" style="stop-color:#17538F"/>
			<stop  offset="1" style="stop-color:#76A5CF"/>
		</linearGradient>
		<rect x="321.2" y="198.4" class="st62" width="4.6" height="46.1"/>
		<linearGradient id="SVGID_56_" gradientUnits="userSpaceOnUse" x1="330.3689" y1="198.4286" x2="330.3689" y2="244.5712">
			<stop  offset="0" style="stop-color:#17538F"/>
			<stop  offset="1" style="stop-color:#76A5CF"/>
		</linearGradient>
		<rect x="328.1" y="198.4" class="st63" width="4.6" height="46.1"/>
		<linearGradient id="SVGID_57_" gradientUnits="userSpaceOnUse" x1="338.187" y1="198.4286" x2="338.187" y2="244.5712">
			<stop  offset="0" style="stop-color:#17538F"/>
			<stop  offset="1" style="stop-color:#76A5CF"/>
		</linearGradient>
		<rect x="335.9" y="198.4" class="st64" width="4.6" height="46.1"/>
		<linearGradient id="SVGID_58_" gradientUnits="userSpaceOnUse" x1="344.5981" y1="198.4286" x2="344.5981" y2="244.5712">
			<stop  offset="0" style="stop-color:#17538F"/>
			<stop  offset="1" style="stop-color:#76A5CF"/>
		</linearGradient>
		<rect x="342.3" y="198.4" class="st65" width="4.6" height="46.1"/>
		<linearGradient id="SVGID_59_" gradientUnits="userSpaceOnUse" x1="352.01" y1="198.4286" x2="352.01" y2="244.5712">
			<stop  offset="0" style="stop-color:#17538F"/>
			<stop  offset="1" style="stop-color:#76A5CF"/>
		</linearGradient>
		<rect x="349.7" y="198.4" class="st66" width="4.6" height="46.1"/>
		<linearGradient id="SVGID_60_" gradientUnits="userSpaceOnUse" x1="359.8281" y1="198.4286" x2="359.8281" y2="244.5712">
			<stop  offset="0" style="stop-color:#17538F"/>
			<stop  offset="1" style="stop-color:#76A5CF"/>
		</linearGradient>
		<rect x="357.5" y="198.4" class="st67" width="4.6" height="46.1"/>
		<linearGradient id="SVGID_61_" gradientUnits="userSpaceOnUse" x1="366.7417" y1="198.4286" x2="366.7417" y2="244.5712">
			<stop  offset="0" style="stop-color:#17538F"/>
			<stop  offset="1" style="stop-color:#76A5CF"/>
		</linearGradient>
		<rect x="364.4" y="198.4" class="st68" width="4.6" height="46.1"/>
		<linearGradient id="SVGID_62_" gradientUnits="userSpaceOnUse" x1="374.5598" y1="198.4286" x2="374.5598" y2="244.5712">
			<stop  offset="0" style="stop-color:#17538F"/>
			<stop  offset="1" style="stop-color:#76A5CF"/>
		</linearGradient>
		<rect x="372.3" y="198.4" class="st69" width="4.6" height="46.1"/>
		<linearGradient id="SVGID_63_" gradientUnits="userSpaceOnUse" x1="381.4015" y1="198.4286" x2="381.4015" y2="244.5712">
			<stop  offset="0" style="stop-color:#17538F"/>
			<stop  offset="1" style="stop-color:#76A5CF"/>
		</linearGradient>
		<rect x="379.1" y="198.4" class="st70" width="4.6" height="46.1"/>
		<linearGradient id="SVGID_64_" gradientUnits="userSpaceOnUse" x1="389.2195" y1="198.4286" x2="389.2195" y2="244.5712">
			<stop  offset="0" style="stop-color:#17538F"/>
			<stop  offset="1" style="stop-color:#76A5CF"/>
		</linearGradient>
		<rect x="386.9" y="198.4" class="st71" width="4.6" height="46.1"/>
		<linearGradient id="SVGID_65_" gradientUnits="userSpaceOnUse" x1="397.1323" y1="198.4286" x2="397.1323" y2="244.5712">
			<stop  offset="0" style="stop-color:#17538F"/>
			<stop  offset="1" style="stop-color:#76A5CF"/>
		</linearGradient>
		<rect x="394.8" y="198.4" class="st72" width="4.6" height="46.1"/>
		<linearGradient id="SVGID_66_" gradientUnits="userSpaceOnUse" x1="404.9504" y1="198.4286" x2="404.9504" y2="244.5712">
			<stop  offset="0" style="stop-color:#17538F"/>
			<stop  offset="1" style="stop-color:#76A5CF"/>
		</linearGradient>
		<rect x="402.7" y="198.4" class="st73" width="4.6" height="46.1"/>
		<linearGradient id="SVGID_67_" gradientUnits="userSpaceOnUse" x1="411.9457" y1="198.4286" x2="411.9457" y2="244.5712">
			<stop  offset="0" style="stop-color:#17538F"/>
			<stop  offset="1" style="stop-color:#76A5CF"/>
		</linearGradient>
		<rect x="409.6" y="198.4" class="st74" width="4.6" height="46.1"/>
		<linearGradient id="SVGID_68_" gradientUnits="userSpaceOnUse" x1="419.3577" y1="198.4286" x2="419.3577" y2="244.5712">
			<stop  offset="0" style="stop-color:#17538F"/>
			<stop  offset="1" style="stop-color:#76A5CF"/>
		</linearGradient>
		<rect x="417.1" y="198.4" class="st75" width="4.6" height="46.1"/>
		<linearGradient id="SVGID_69_" gradientUnits="userSpaceOnUse" x1="427.1758" y1="198.4286" x2="427.1758" y2="244.5712">
			<stop  offset="0" style="stop-color:#17538F"/>
			<stop  offset="1" style="stop-color:#76A5CF"/>
		</linearGradient>
		<rect x="424.9" y="198.4" class="st76" width="4.6" height="46.1"/>
		<linearGradient id="SVGID_70_" gradientUnits="userSpaceOnUse" x1="434.0894" y1="198.4286" x2="434.0894" y2="244.5712">
			<stop  offset="0" style="stop-color:#17538F"/>
			<stop  offset="1" style="stop-color:#76A5CF"/>
		</linearGradient>
		<rect x="431.8" y="198.4" class="st77" width="4.6" height="46.1"/>
		<linearGradient id="SVGID_71_" gradientUnits="userSpaceOnUse" x1="441.9075" y1="198.4286" x2="441.9075" y2="244.5712">
			<stop  offset="0" style="stop-color:#17538F"/>
			<stop  offset="1" style="stop-color:#76A5CF"/>
		</linearGradient>
		<rect x="439.6" y="198.4" class="st78" width="4.6" height="46.1"/>
		<linearGradient id="SVGID_72_" gradientUnits="userSpaceOnUse" x1="448.7491" y1="198.4286" x2="448.7491" y2="244.5712">
			<stop  offset="0" style="stop-color:#17538F"/>
			<stop  offset="1" style="stop-color:#76A5CF"/>
		</linearGradient>
		<rect x="446.5" y="198.4" class="st79" width="4.6" height="46.1"/>
		<linearGradient id="SVGID_73_" gradientUnits="userSpaceOnUse" x1="456.5672" y1="198.4286" x2="456.5672" y2="244.5712">
			<stop  offset="0" style="stop-color:#17538F"/>
			<stop  offset="1" style="stop-color:#76A5CF"/>
		</linearGradient>
		<rect x="454.3" y="198.4" class="st80" width="4.6" height="46.1"/>
		<linearGradient id="SVGID_74_" gradientUnits="userSpaceOnUse" x1="463.4808" y1="198.4286" x2="463.4808" y2="244.5712">
			<stop  offset="0" style="stop-color:#17538F"/>
			<stop  offset="1" style="stop-color:#76A5CF"/>
		</linearGradient>
		<rect x="461.2" y="198.4" class="st81" width="4.6" height="46.1"/>
		<linearGradient id="SVGID_75_" gradientUnits="userSpaceOnUse" x1="471.2989" y1="198.4286" x2="471.2989" y2="244.5712">
			<stop  offset="0" style="stop-color:#17538F"/>
			<stop  offset="1" style="stop-color:#76A5CF"/>
		</linearGradient>
		<rect x="469" y="198.4" class="st82" width="4.6" height="46.1"/>
		<linearGradient id="SVGID_76_" gradientUnits="userSpaceOnUse" x1="477.71" y1="198.4286" x2="477.71" y2="244.5712">
			<stop  offset="0" style="stop-color:#17538F"/>
			<stop  offset="1" style="stop-color:#76A5CF"/>
		</linearGradient>
		<rect x="475.4" y="198.4" class="st83" width="4.6" height="46.1"/>
		<linearGradient id="SVGID_77_" gradientUnits="userSpaceOnUse" x1="485.1219" y1="198.4286" x2="485.1219" y2="244.5712">
			<stop  offset="0" style="stop-color:#17538F"/>
			<stop  offset="1" style="stop-color:#76A5CF"/>
		</linearGradient>
		<rect x="482.8" y="198.4" class="st84" width="4.6" height="46.1"/>
		<linearGradient id="SVGID_78_" gradientUnits="userSpaceOnUse" x1="492.94" y1="198.4286" x2="492.94" y2="244.5712">
			<stop  offset="0" style="stop-color:#17538F"/>
			<stop  offset="1" style="stop-color:#76A5CF"/>
		</linearGradient>
		<rect x="490.6" y="198.4" class="st85" width="4.6" height="46.1"/>
		<linearGradient id="SVGID_79_" gradientUnits="userSpaceOnUse" x1="499.8536" y1="198.4286" x2="499.8536" y2="244.5712">
			<stop  offset="0" style="stop-color:#17538F"/>
			<stop  offset="1" style="stop-color:#76A5CF"/>
		</linearGradient>
		<rect x="497.6" y="198.4" class="st86" width="4.6" height="46.1"/>
		<linearGradient id="SVGID_80_" gradientUnits="userSpaceOnUse" x1="507.6718" y1="198.4286" x2="507.6718" y2="244.5712">
			<stop  offset="0" style="stop-color:#17538F"/>
			<stop  offset="1" style="stop-color:#76A5CF"/>
		</linearGradient>
		<rect x="505.4" y="198.4" class="st87" width="4.6" height="46.1"/>
		<linearGradient id="SVGID_81_" gradientUnits="userSpaceOnUse" x1="514.5134" y1="198.4286" x2="514.5134" y2="244.5712">
			<stop  offset="0" style="stop-color:#17538F"/>
			<stop  offset="1" style="stop-color:#76A5CF"/>
		</linearGradient>
		<rect x="512.2" y="198.4" class="st88" width="4.6" height="46.1"/>
		<linearGradient id="SVGID_82_" gradientUnits="userSpaceOnUse" x1="522.3315" y1="198.4286" x2="522.3315" y2="244.5712">
			<stop  offset="0" style="stop-color:#17538F"/>
			<stop  offset="1" style="stop-color:#76A5CF"/>
		</linearGradient>
		<rect x="520" y="198.4" class="st89" width="4.6" height="46.1"/>
		<linearGradient id="SVGID_83_" gradientUnits="userSpaceOnUse" x1="529.2451" y1="198.4286" x2="529.2451" y2="244.5712">
			<stop  offset="0" style="stop-color:#17538F"/>
			<stop  offset="1" style="stop-color:#76A5CF"/>
		</linearGradient>
		<rect x="526.9" y="198.4" class="st90" width="4.6" height="46.1"/>
		<linearGradient id="SVGID_84_" gradientUnits="userSpaceOnUse" x1="537.0632" y1="198.4286" x2="537.0632" y2="244.5712">
			<stop  offset="0" style="stop-color:#17538F"/>
			<stop  offset="1" style="stop-color:#76A5CF"/>
		</linearGradient>
		<rect x="534.8" y="198.4" class="st91" width="4.6" height="46.1"/>
		<linearGradient id="SVGID_85_" gradientUnits="userSpaceOnUse" x1="544.876" y1="198.4286" x2="544.876" y2="244.5712">
			<stop  offset="0" style="stop-color:#17538F"/>
			<stop  offset="1" style="stop-color:#76A5CF"/>
		</linearGradient>
		<rect x="542.6" y="198.4" class="st92" width="4.6" height="46.1"/>
		<linearGradient id="SVGID_86_" gradientUnits="userSpaceOnUse" x1="552.6941" y1="198.4286" x2="552.6941" y2="244.5712">
			<stop  offset="0" style="stop-color:#17538F"/>
			<stop  offset="1" style="stop-color:#76A5CF"/>
		</linearGradient>
		<rect x="550.4" y="198.4" class="st93" width="4.6" height="46.1"/>
		<linearGradient id="SVGID_87_" gradientUnits="userSpaceOnUse" x1="559.6077" y1="198.4286" x2="559.6077" y2="244.5712">
			<stop  offset="0" style="stop-color:#17538F"/>
			<stop  offset="1" style="stop-color:#76A5CF"/>
		</linearGradient>
		<rect x="557.3" y="198.4" class="st94" width="4.6" height="46.1"/>
		<linearGradient id="SVGID_88_" gradientUnits="userSpaceOnUse" x1="567.4258" y1="198.4286" x2="567.4258" y2="244.5712">
			<stop  offset="0" style="stop-color:#17538F"/>
			<stop  offset="1" style="stop-color:#76A5CF"/>
		</linearGradient>
		<rect x="565.1" y="198.4" class="st95" width="4.6" height="46.1"/>
		<linearGradient id="SVGID_89_" gradientUnits="userSpaceOnUse" x1="574.2675" y1="198.4286" x2="574.2675" y2="244.5712">
			<stop  offset="0" style="stop-color:#17538F"/>
			<stop  offset="1" style="stop-color:#76A5CF"/>
		</linearGradient>
		<rect x="572" y="198.4" class="st96" width="4.6" height="46.1"/>
		<linearGradient id="SVGID_90_" gradientUnits="userSpaceOnUse" x1="582.0856" y1="198.4286" x2="582.0856" y2="244.5712">
			<stop  offset="0" style="stop-color:#17538F"/>
			<stop  offset="1" style="stop-color:#76A5CF"/>
		</linearGradient>
		<rect x="579.8" y="198.4" class="st97" width="4.6" height="46.1"/>
		<linearGradient id="SVGID_91_" gradientUnits="userSpaceOnUse" x1="588.9991" y1="198.4286" x2="588.9991" y2="244.5712">
			<stop  offset="0" style="stop-color:#17538F"/>
			<stop  offset="1" style="stop-color:#76A5CF"/>
		</linearGradient>
		<rect x="586.7" y="198.4" class="st98" width="4.6" height="46.1"/>
		<linearGradient id="SVGID_92_" gradientUnits="userSpaceOnUse" x1="596.8173" y1="198.4286" x2="596.8173" y2="244.5712">
			<stop  offset="0" style="stop-color:#17538F"/>
			<stop  offset="1" style="stop-color:#76A5CF"/>
		</linearGradient>
		<rect x="594.5" y="198.4" class="st99" width="4.6" height="46.1"/>
		<linearGradient id="SVGID_93_" gradientUnits="userSpaceOnUse" x1="603.2284" y1="198.4286" x2="603.2284" y2="244.5712">
			<stop  offset="0" style="stop-color:#17538F"/>
			<stop  offset="1" style="stop-color:#76A5CF"/>
		</linearGradient>
		<rect x="600.9" y="198.4" class="st100" width="4.6" height="46.1"/>
		<linearGradient id="SVGID_94_" gradientUnits="userSpaceOnUse" x1="610.6403" y1="198.4286" x2="610.6403" y2="244.5712">
			<stop  offset="0" style="stop-color:#17538F"/>
			<stop  offset="1" style="stop-color:#76A5CF"/>
		</linearGradient>
		<rect x="608.3" y="198.4" class="st101" width="4.6" height="46.1"/>
		<linearGradient id="SVGID_95_" gradientUnits="userSpaceOnUse" x1="618.4584" y1="198.4286" x2="618.4584" y2="244.5712">
			<stop  offset="0" style="stop-color:#17538F"/>
			<stop  offset="1" style="stop-color:#76A5CF"/>
		</linearGradient>
		<rect x="616.2" y="198.4" class="st102" width="4.6" height="46.1"/>
		<linearGradient id="SVGID_96_" gradientUnits="userSpaceOnUse" x1="625.372" y1="198.4286" x2="625.372" y2="244.5712">
			<stop  offset="0" style="stop-color:#17538F"/>
			<stop  offset="1" style="stop-color:#76A5CF"/>
		</linearGradient>
		<rect x="623.1" y="198.4" class="st103" width="4.6" height="46.1"/>
		<linearGradient id="SVGID_97_" gradientUnits="userSpaceOnUse" x1="633.1901" y1="198.4286" x2="633.1901" y2="244.5712">
			<stop  offset="0" style="stop-color:#17538F"/>
			<stop  offset="1" style="stop-color:#76A5CF"/>
		</linearGradient>
		<rect x="630.9" y="198.4" class="st104" width="4.6" height="46.1"/>
		<linearGradient id="SVGID_98_" gradientUnits="userSpaceOnUse" x1="640.0317" y1="198.4286" x2="640.0317" y2="244.5712">
			<stop  offset="0" style="stop-color:#17538F"/>
			<stop  offset="1" style="stop-color:#76A5CF"/>
		</linearGradient>
		<rect x="637.7" y="198.4" class="st105" width="4.6" height="46.1"/>
		<linearGradient id="SVGID_99_" gradientUnits="userSpaceOnUse" x1="647.8498" y1="198.4286" x2="647.8498" y2="244.5712">
			<stop  offset="0" style="stop-color:#17538F"/>
			<stop  offset="1" style="stop-color:#76A5CF"/>
		</linearGradient>
		<rect x="645.6" y="198.4" class="st106" width="4.6" height="46.1"/>
		<linearGradient id="SVGID_100_" gradientUnits="userSpaceOnUse" x1="654.7634" y1="198.4286" x2="654.7634" y2="244.5712">
			<stop  offset="0" style="stop-color:#17538F"/>
			<stop  offset="1" style="stop-color:#76A5CF"/>
		</linearGradient>
		<rect x="652.5" y="198.4" class="st107" width="4.6" height="46.1"/>
		<linearGradient id="SVGID_101_" gradientUnits="userSpaceOnUse" x1="662.5815" y1="198.4286" x2="662.5815" y2="244.5712">
			<stop  offset="0" style="stop-color:#17538F"/>
			<stop  offset="1" style="stop-color:#76A5CF"/>
		</linearGradient>
		<rect x="660.3" y="198.4" class="st108" width="4.6" height="46.1"/>
		<linearGradient id="SVGID_102_" gradientUnits="userSpaceOnUse" x1="670.5997" y1="198.4286" x2="670.5997" y2="244.5712">
			<stop  offset="0" style="stop-color:#17538F"/>
			<stop  offset="1" style="stop-color:#76A5CF"/>
		</linearGradient>
		<rect x="668.3" y="198.4" class="st109" width="4.6" height="46.1"/>
		<linearGradient id="SVGID_103_" gradientUnits="userSpaceOnUse" x1="677.5132" y1="198.4286" x2="677.5132" y2="244.5712">
			<stop  offset="0" style="stop-color:#17538F"/>
			<stop  offset="1" style="stop-color:#76A5CF"/>
		</linearGradient>
		<rect x="675.2" y="198.4" class="st110" width="4.6" height="46.1"/>
		<linearGradient id="SVGID_104_" gradientUnits="userSpaceOnUse" x1="686.3305" y1="198.4286" x2="686.3305" y2="244.5712">
			<stop  offset="0" style="stop-color:#17538F"/>
			<stop  offset="1" style="stop-color:#76A5CF"/>
		</linearGradient>
		<rect x="684" y="198.4" class="st111" width="4.6" height="46.1"/>
		<linearGradient id="SVGID_105_" gradientUnits="userSpaceOnUse" x1="693.7407" y1="198.4286" x2="693.7407" y2="244.5712">
			<stop  offset="0" style="stop-color:#17538F"/>
			<stop  offset="1" style="stop-color:#76A5CF"/>
		</linearGradient>
		<rect x="691.4" y="198.4" class="st112" width="4.6" height="46.1"/>
		<linearGradient id="SVGID_106_" gradientUnits="userSpaceOnUse" x1="702.1518" y1="198.4286" x2="702.1518" y2="244.5712">
			<stop  offset="0" style="stop-color:#17538F"/>
			<stop  offset="1" style="stop-color:#76A5CF"/>
		</linearGradient>
		<rect x="699.9" y="198.4" class="st113" width="4.6" height="46.1"/>
		<linearGradient id="SVGID_107_" gradientUnits="userSpaceOnUse" x1="709.9699" y1="198.4286" x2="709.9699" y2="244.5712">
			<stop  offset="0" style="stop-color:#17538F"/>
			<stop  offset="1" style="stop-color:#76A5CF"/>
		</linearGradient>
		<rect x="707.7" y="198.4" class="st114" width="4.6" height="46.1"/>
		<linearGradient id="SVGID_108_" gradientUnits="userSpaceOnUse" x1="717.8826" y1="198.4286" x2="717.8826" y2="244.5712">
			<stop  offset="0" style="stop-color:#17538F"/>
			<stop  offset="1" style="stop-color:#76A5CF"/>
		</linearGradient>
		<rect x="715.6" y="198.4" class="st115" width="4.6" height="46.1"/>
		<linearGradient id="SVGID_109_" gradientUnits="userSpaceOnUse" x1="725.7007" y1="198.4286" x2="725.7007" y2="244.5712">
			<stop  offset="0" style="stop-color:#17538F"/>
			<stop  offset="1" style="stop-color:#76A5CF"/>
		</linearGradient>
		<rect x="723.4" y="198.4" class="st116" width="4.6" height="46.1"/>
	</g>
	<rect x="10.3" y="191.6" class="st117" width="717.7" height="7.2"/>
</g>
</svg>
